{
    "key": "group_5409de8b488f4",
    "title": "Layouts",
    "fields": [
        {
            "key": "field_5409d668d395b",
            "label": "Layout",
            "name": "layout",
            "type": "flexible_content",
            "instructions": "",
            "required": 0,
            "conditional_logic": 0,
            "wrapper": {
                "width": "",
                "class": "",
                "id": ""
            },
            "layouts": {
                "5409de8b4c6b9": {
                    "key": "5409de8b4c6b9",
                    "name": "slider",
                    "label": "Slider",
                    "display": "block",
                    "sub_fields": [
                        {
                            "key": "field_5b9f5de9c6b23",
                            "label": "Slides",
                            "name": "slides",
                            "type": "repeater",
                            "instructions": "",
                            "required": 0,
                            "conditional_logic": 0,
                            "wrapper": {
                                "width": "",
                                "class": "",
                                "id": ""
                            },
                            "collapsed": "",
                            "min": 0,
                            "max": 0,
                            "layout": "block",
                            "button_label": "Tilføj slides",
                            "sub_fields": [
                                {
                                    "key": "field_5b9f5dfac6b24",
                                    "label": "Baggrundsbillede",
                                    "name": "slides_bg",
                                    "type": "image",
                                    "instructions": "",
                                    "required": 0,
                                    "conditional_logic": 0,
                                    "wrapper": {
                                        "width": "",
                                        "class": "",
                                        "id": ""
                                    },
                                    "return_format": "array",
                                    "preview_size": "thumbnail",
                                    "library": "all",
                                    "min_width": "",
                                    "min_height": "",
                                    "min_size": "",
                                    "max_width": "",
                                    "max_height": "",
                                    "max_size": "",
                                    "mime_types": ""
                                },
                                {
                                    "key": "field_5b9f5e3cc6b26",
                                    "label": "Overskrift",
                                    "name": "slides_title",
                                    "type": "text",
                                    "instructions": "",
                                    "required": 0,
                                    "conditional_logic": 0,
                                    "wrapper": {
                                        "width": "50",
                                        "class": "",
                                        "id": ""
                                    },
                                    "default_value": "",
                                    "placeholder": "",
                                    "prepend": "",
                                    "append": "",
                                    "maxlength": ""
                                },
                                {
                                    "key": "field_5b9f5e20c6b25",
                                    "label": "Tekst",
                                    "name": "slides_text",
                                    "type": "wysiwyg",
                                    "instructions": "",
                                    "required": 0,
                                    "conditional_logic": 0,
                                    "wrapper": {
                                        "width": "50",
                                        "class": "",
                                        "id": ""
                                    },
                                    "default_value": "",
                                    "tabs": "all",
                                    "toolbar": "full",
                                    "media_upload": 0,
                                    "delay": 0
                                },
                                {
                                    "key": "field_5ceba8f5b08ce",
                                    "label": "Link",
                                    "name": "slides_link",
                                    "type": "page_link",
                                    "instructions": "",
                                    "required": 0,
                                    "conditional_logic": 0,
                                    "wrapper": {
                                        "width": "50",
                                        "class": "",
                                        "id": ""
                                    },
                                    "post_type": "",
                                    "taxonomy": "",
                                    "allow_null": 0,
                                    "allow_archives": 1,
                                    "multiple": 0
                                },
                                {
                                    "key": "field_5ceba906b08cf",
                                    "label": "Link tekst",
                                    "name": "slides_link_text",
                                    "type": "text",
                                    "instructions": "",
                                    "required": 0,
                                    "conditional_logic": 0,
                                    "wrapper": {
                                        "width": "50",
                                        "class": "",
                                        "id": ""
                                    },
                                    "default_value": "",
                                    "placeholder": "",
                                    "prepend": "",
                                    "append": "",
                                    "maxlength": ""
                                }
                            ]
                        }
                    ],
                    "min": "",
                    "max": ""
                },
                "5412c2812a2f5": {
                    "key": "5412c2812a2f5",
                    "name": "wysiwygs",
                    "label": "WYSIWYGs",
                    "display": "block",
                    "sub_fields": [
                        {
                            "key": "field_5412c28a2a2f6",
                            "label": "Overskrift",
                            "name": "header",
                            "type": "text",
                            "instructions": "",
                            "required": 0,
                            "conditional_logic": 0,
                            "wrapper": {
                                "width": "",
                                "class": "",
                                "id": ""
                            },
                            "default_value": "",
                            "placeholder": "",
                            "prepend": "",
                            "append": "",
                            "maxlength": ""
                        },
                        {
                            "key": "field_5412ce61ab045",
                            "label": "Offset",
                            "name": "offset",
                            "type": "radio",
                            "instructions": "<pre>\r\n<em>Flexible:<\/em><br>\r\n|---||---|<br>\r\n|--------|<br>\r\n<em>2 to 1:<\/em><br>\r\n|----||--|<br>\r\n<em>1 to 2:<\/em><br>\r\n|--||----|\r\n<\/pre>",
                            "required": 0,
                            "conditional_logic": 0,
                            "wrapper": {
                                "width": "",
                                "class": "",
                                "id": ""
                            },
                            "choices": {
                                "Flexible": "Flexible",
                                "2 to 1": "2 to 1",
                                "1 to 2": "1 to 2"
                            },
                            "allow_null": 0,
                            "other_choice": 0,
                            "default_value": "",
                            "layout": "vertical",
                            "return_format": "value",
                            "save_other_choice": 0
                        },
                        {
                            "key": "field_5b9fa68225296",
                            "label": "Baggrundsfarve",
                            "name": "bg",
                            "type": "select",
                            "instructions": "",
                            "required": 0,
                            "conditional_logic": 0,
                            "wrapper": {
                                "width": "50",
                                "class": "",
                                "id": ""
                            },
                            "choices": {
                                "none": "Ingen",
                                "blue": "Blå",
                                "red": "Rød",
                                "gray": "Grå"
                            },
                            "default_value": [
                                "none"
                            ],
                            "allow_null": 0,
                            "multiple": 0,
                            "ui": 0,
                            "return_format": "value",
                            "ajax": 0,
                            "placeholder": ""
                        },
                        {
                            "key": "field_5b9fa6f98efcb",
                            "label": "Margin",
                            "name": "margin",
                            "type": "select",
                            "instructions": "Vælg om sektionen skal have margin i top, bund, begge eller ingen.",
                            "required": 0,
                            "conditional_logic": 0,
                            "wrapper": {
                                "width": "50",
                                "class": "",
                                "id": ""
                            },
                            "choices": {
                                "none": "Ingen",
                                "top": "Top",
                                "bottom": "Bund",
                                "both": "Begge"
                            },
                            "default_value": [
                                "none"
                            ],
                            "allow_null": 0,
                            "multiple": 0,
                            "ui": 0,
                            "return_format": "value",
                            "ajax": 0,
                            "placeholder": ""
                        },
                        {
                            "key": "field_5412c2c02a2f7",
                            "label": "WYSIWYGs",
                            "name": "wysiwygs",
                            "type": "repeater",
                            "instructions": "",
                            "required": 0,
                            "conditional_logic": 0,
                            "wrapper": {
                                "width": "",
                                "class": "",
                                "id": ""
                            },
                            "collapsed": "",
                            "min": 0,
                            "max": 0,
                            "layout": "table",
                            "button_label": "Tilføj WYSIWYG's",
                            "sub_fields": [
                                {
                                    "key": "field_5412c2da2a2f8",
                                    "label": "WYSIWYG",
                                    "name": "wysiwyg",
                                    "type": "wysiwyg",
                                    "instructions": "",
                                    "required": 0,
                                    "conditional_logic": 0,
                                    "wrapper": {
                                        "width": "",
                                        "class": "",
                                        "id": ""
                                    },
                                    "default_value": "",
                                    "tabs": "all",
                                    "toolbar": "full",
                                    "media_upload": 1,
                                    "delay": 0
                                }
                            ]
                        }
                    ],
                    "min": "",
                    "max": ""
                },
                "layout_5ba0a94143236": {
                    "key": "layout_5ba0a94143236",
                    "name": "link-boxes",
                    "label": "Link boxes",
                    "display": "block",
                    "sub_fields": [
                        {
                            "key": "field_5ba0a9f94323e",
                            "label": "Sektions indstillinger",
                            "name": "",
                            "type": "tab",
                            "instructions": "",
                            "required": 0,
                            "conditional_logic": 0,
                            "wrapper": {
                                "width": "",
                                "class": "",
                                "id": ""
                            },
                            "placement": "top",
                            "endpoint": 0
                        },
                        {
                            "key": "field_5ba0a94143237",
                            "label": "Overskrift",
                            "name": "header",
                            "type": "text",
                            "instructions": "",
                            "required": 0,
                            "conditional_logic": 0,
                            "wrapper": {
                                "width": "",
                                "class": "",
                                "id": ""
                            },
                            "default_value": "",
                            "placeholder": "",
                            "prepend": "",
                            "append": "",
                            "maxlength": ""
                        },
                        {
                            "key": "field_5ba0a94143239",
                            "label": "Baggrundsfarve",
                            "name": "bg",
                            "type": "select",
                            "instructions": "Vælg sektionens baggrundsfarve.",
                            "required": 0,
                            "conditional_logic": 0,
                            "wrapper": {
                                "width": "50",
                                "class": "",
                                "id": ""
                            },
                            "choices": {
                                "none": "Ingen",
                                "blue": "Blå",
                                "red": "Rød",
                                "gray": "Grå"
                            },
                            "default_value": [
                                "none"
                            ],
                            "allow_null": 0,
                            "multiple": 0,
                            "ui": 0,
                            "return_format": "value",
                            "ajax": 0,
                            "placeholder": ""
                        },
                        {
                            "key": "field_5ba0a9414323a",
                            "label": "Margin",
                            "name": "margin",
                            "type": "select",
                            "instructions": "Vælg om sektionen skal have margin i top, bund, begge eller ingen.",
                            "required": 0,
                            "conditional_logic": 0,
                            "wrapper": {
                                "width": "50",
                                "class": "",
                                "id": ""
                            },
                            "choices": {
                                "none": "Ingen",
                                "top": "Top",
                                "bottom": "Bund",
                                "both": "Begge"
                            },
                            "default_value": [
                                "none"
                            ],
                            "allow_null": 0,
                            "multiple": 0,
                            "ui": 0,
                            "return_format": "value",
                            "ajax": 0,
                            "placeholder": ""
                        },
                        {
                            "key": "field_5ba0aa164323f",
                            "label": "Link boxes",
                            "name": "",
                            "type": "tab",
                            "instructions": "",
                            "required": 0,
                            "conditional_logic": 0,
                            "wrapper": {
                                "width": "",
                                "class": "",
                                "id": ""
                            },
                            "placement": "top",
                            "endpoint": 0
                        },
                        {
                            "key": "field_5ba0a9414323b",
                            "label": "Link boxes",
                            "name": "linkbox",
                            "type": "repeater",
                            "instructions": "",
                            "required": 0,
                            "conditional_logic": 0,
                            "wrapper": {
                                "width": "",
                                "class": "",
                                "id": ""
                            },
                            "collapsed": "",
                            "min": 0,
                            "max": 0,
                            "layout": "block",
                            "button_label": "Tilføj Link boxes",
                            "sub_fields": [
                                {
                                    "key": "field_5ba0b6202589d",
                                    "label": "Ikon\/billede (valgfri)",
                                    "name": "icon",
                                    "type": "image",
                                    "instructions": "",
                                    "required": 0,
                                    "conditional_logic": 0,
                                    "wrapper": {
                                        "width": "",
                                        "class": "",
                                        "id": ""
                                    },
                                    "return_format": "array",
                                    "preview_size": "thumbnail",
                                    "library": "all",
                                    "min_width": "",
                                    "min_height": "",
                                    "min_size": "",
                                    "max_width": "",
                                    "max_height": "",
                                    "max_size": "",
                                    "mime_types": ""
                                },
                                {
                                    "key": "field_5ba0a9414323c",
                                    "label": "Overskrift",
                                    "name": "title",
                                    "type": "text",
                                    "instructions": "",
                                    "required": 0,
                                    "conditional_logic": 0,
                                    "wrapper": {
                                        "width": "",
                                        "class": "",
                                        "id": ""
                                    },
                                    "default_value": "",
                                    "placeholder": "",
                                    "prepend": "",
                                    "append": "",
                                    "maxlength": ""
                                },
                                {
                                    "key": "field_5ba0a9d04323d",
                                    "label": "Text",
                                    "name": "text",
                                    "type": "textarea",
                                    "instructions": "",
                                    "required": 0,
                                    "conditional_logic": 0,
                                    "wrapper": {
                                        "width": "",
                                        "class": "",
                                        "id": ""
                                    },
                                    "default_value": "",
                                    "placeholder": "",
                                    "maxlength": "",
                                    "rows": "",
                                    "new_lines": ""
                                },
                                {
                                    "key": "field_5c7e68743d3df",
                                    "label": "Link",
                                    "name": "link",
                                    "type": "page_link",
                                    "instructions": "",
                                    "required": 0,
                                    "conditional_logic": 0,
                                    "wrapper": {
                                        "width": "",
                                        "class": "",
                                        "id": ""
                                    },
                                    "post_type": "",
                                    "taxonomy": "",
                                    "allow_null": 0,
                                    "allow_archives": 1,
                                    "multiple": 0
                                }
                            ]
                        }
                    ],
                    "min": "",
                    "max": ""
                },
                "layout_5da830a15636a": {
                    "key": "layout_5da830a15636a",
                    "name": "package-deals",
                    "label": "Pakkeløsninger",
                    "display": "block",
                    "sub_fields": [
                        {
                            "key": "field_5da830a15636b",
                            "label": "Sektions indstillinger",
                            "name": "",
                            "type": "tab",
                            "instructions": "",
                            "required": 0,
                            "conditional_logic": 0,
                            "wrapper": {
                                "width": "",
                                "class": "",
                                "id": ""
                            },
                            "placement": "top",
                            "endpoint": 0
                        },
                        {
                            "key": "field_5da830a15636c",
                            "label": "Overskrift",
                            "name": "header",
                            "type": "text",
                            "instructions": "",
                            "required": 0,
                            "conditional_logic": 0,
                            "wrapper": {
                                "width": "50",
                                "class": "",
                                "id": ""
                            },
                            "default_value": "",
                            "placeholder": "",
                            "prepend": "",
                            "append": "",
                            "maxlength": ""
                        },
                        {
                            "key": "field_5da833c7534d4",
                            "label": "Tekst",
                            "name": "header_intro",
                            "type": "textarea",
                            "instructions": "",
                            "required": 0,
                            "conditional_logic": 0,
                            "wrapper": {
                                "width": "50",
                                "class": "",
                                "id": ""
                            },
                            "default_value": "",
                            "placeholder": "",
                            "maxlength": "",
                            "rows": "",
                            "new_lines": ""
                        },
                        {
                            "key": "field_5da830a15636d",
                            "label": "Baggrundsfarve",
                            "name": "bg",
                            "type": "select",
                            "instructions": "Vælg sektionens baggrundsfarve.",
                            "required": 0,
                            "conditional_logic": 0,
                            "wrapper": {
                                "width": "50",
                                "class": "",
                                "id": ""
                            },
                            "choices": {
                                "none": "Ingen",
                                "blue": "Blå",
                                "red": "Rød",
                                "gray": "Grå"
                            },
                            "default_value": [
                                "none"
                            ],
                            "allow_null": 0,
                            "multiple": 0,
                            "ui": 0,
                            "ajax": 0,
                            "return_format": "value",
                            "placeholder": ""
                        },
                        {
                            "key": "field_5da830a15636e",
                            "label": "Margin",
                            "name": "margin",
                            "type": "select",
                            "instructions": "Vælg om sektionen skal have margin i top, bund, begge eller ingen.",
                            "required": 0,
                            "conditional_logic": 0,
                            "wrapper": {
                                "width": "50",
                                "class": "",
                                "id": ""
                            },
                            "choices": {
                                "none": "Ingen",
                                "top": "Top",
                                "bottom": "Bund",
                                "both": "Begge"
                            },
                            "default_value": [
                                "none"
                            ],
                            "allow_null": 0,
                            "multiple": 0,
                            "ui": 0,
                            "ajax": 0,
                            "return_format": "value",
                            "placeholder": ""
                        },
                        {
                            "key": "field_5da830a15636f",
                            "label": "Pakkeløsning",
                            "name": "",
                            "type": "tab",
                            "instructions": "",
                            "required": 0,
                            "conditional_logic": 0,
                            "wrapper": {
                                "width": "",
                                "class": "",
                                "id": ""
                            },
                            "placement": "top",
                            "endpoint": 0
                        },
                        {
                            "key": "field_5da8327f56376",
                            "label": "Pakke overskrift",
                            "name": "package_title",
                            "type": "text",
                            "instructions": "",
                            "required": 0,
                            "conditional_logic": 0,
                            "wrapper": {
                                "width": "",
                                "class": "",
                                "id": ""
                            },
                            "default_value": "",
                            "placeholder": "",
                            "prepend": "",
                            "append": "",
                            "maxlength": ""
                        },
                        {
                            "key": "field_5da8329656377",
                            "label": "Pakke tekst",
                            "name": "package_text",
                            "type": "wysiwyg",
                            "instructions": "",
                            "required": 0,
                            "conditional_logic": 0,
                            "wrapper": {
                                "width": "",
                                "class": "",
                                "id": ""
                            },
                            "default_value": "",
                            "tabs": "all",
                            "toolbar": "full",
                            "media_upload": 0,
                            "delay": 0
                        }
                    ],
                    "min": "",
                    "max": ""
                },
                "layout_5cebb5fab2ee5": {
                    "key": "layout_5cebb5fab2ee5",
                    "name": "quick-links",
                    "label": "Quick links",
                    "display": "block",
                    "sub_fields": [
                        {
                            "key": "field_5cebb5fab2ee6",
                            "label": "Sektions indstillinger",
                            "name": "",
                            "type": "tab",
                            "instructions": "",
                            "required": 0,
                            "conditional_logic": 0,
                            "wrapper": {
                                "width": "",
                                "class": "",
                                "id": ""
                            },
                            "placement": "top",
                            "endpoint": 0
                        },
                        {
                            "key": "field_5cebb5fab2ee8",
                            "label": "Baggrundsfarve",
                            "name": "bg",
                            "type": "select",
                            "instructions": "Vælg sektionens baggrundsfarve.",
                            "required": 0,
                            "conditional_logic": 0,
                            "wrapper": {
                                "width": "50",
                                "class": "",
                                "id": ""
                            },
                            "choices": {
                                "none": "Ingen",
                                "blue": "Blå",
                                "red": "Rød",
                                "gray": "Grå"
                            },
                            "default_value": [
                                "none"
                            ],
                            "allow_null": 0,
                            "multiple": 0,
                            "ui": 0,
                            "ajax": 0,
                            "return_format": "value",
                            "placeholder": ""
                        },
                        {
                            "key": "field_5cebb5fab2ee9",
                            "label": "Margin",
                            "name": "margin",
                            "type": "select",
                            "instructions": "Vælg om sektionen skal have margin i top, bund, begge eller ingen.",
                            "required": 0,
                            "conditional_logic": 0,
                            "wrapper": {
                                "width": "50",
                                "class": "",
                                "id": ""
                            },
                            "choices": {
                                "none": "Ingen",
                                "top": "Top",
                                "bottom": "Bund",
                                "both": "Begge"
                            },
                            "default_value": [
                                "none"
                            ],
                            "allow_null": 0,
                            "multiple": 0,
                            "ui": 0,
                            "ajax": 0,
                            "return_format": "value",
                            "placeholder": ""
                        },
                        {
                            "key": "field_5cebb5fab2eea",
                            "label": "Quick links",
                            "name": "",
                            "type": "tab",
                            "instructions": "",
                            "required": 0,
                            "conditional_logic": 0,
                            "wrapper": {
                                "width": "",
                                "class": "",
                                "id": ""
                            },
                            "placement": "top",
                            "endpoint": 0
                        },
                        {
                            "key": "field_5cebb5fab2eeb",
                            "label": "Quick links",
                            "name": "quicklink",
                            "type": "repeater",
                            "instructions": "",
                            "required": 0,
                            "conditional_logic": 0,
                            "wrapper": {
                                "width": "",
                                "class": "",
                                "id": ""
                            },
                            "collapsed": "",
                            "min": 0,
                            "max": 3,
                            "layout": "block",
                            "button_label": "Tilføj Links",
                            "sub_fields": [
                                {
                                    "key": "field_5cebb5fab2eee",
                                    "label": "Link tekst",
                                    "name": "text",
                                    "type": "text",
                                    "instructions": "",
                                    "required": 0,
                                    "conditional_logic": 0,
                                    "wrapper": {
                                        "width": "50",
                                        "class": "",
                                        "id": ""
                                    },
                                    "default_value": "",
                                    "placeholder": "",
                                    "prepend": "",
                                    "append": "",
                                    "maxlength": ""
                                },
                                {
                                    "key": "field_5cebb5fab2eef",
                                    "label": "Link",
                                    "name": "link",
                                    "type": "page_link",
                                    "instructions": "",
                                    "required": 0,
                                    "conditional_logic": 0,
                                    "wrapper": {
                                        "width": "50",
                                        "class": "",
                                        "id": ""
                                    },
                                    "post_type": "",
                                    "taxonomy": "",
                                    "allow_null": 0,
                                    "allow_archives": 1,
                                    "multiple": 0
                                }
                            ]
                        }
                    ],
                    "min": "",
                    "max": ""
                },
                "layout_5cee38b452189": {
                    "key": "layout_5cee38b452189",
                    "name": "latest-questions",
                    "label": "Seneste spørgsmål",
                    "display": "block",
                    "sub_fields": [
                        {
                            "key": "field_5cee38b45218a",
                            "label": "Sektions indstillinger",
                            "name": "",
                            "type": "tab",
                            "instructions": "",
                            "required": 0,
                            "conditional_logic": 0,
                            "wrapper": {
                                "width": "",
                                "class": "",
                                "id": ""
                            },
                            "placement": "top",
                            "endpoint": 0
                        },
                        {
                            "key": "field_5cee391952192",
                            "label": "Overskrift",
                            "name": "header",
                            "type": "text",
                            "instructions": "",
                            "required": 0,
                            "conditional_logic": 0,
                            "wrapper": {
                                "width": "",
                                "class": "",
                                "id": ""
                            },
                            "default_value": "",
                            "placeholder": "",
                            "prepend": "",
                            "append": "",
                            "maxlength": ""
                        },
                        {
                            "key": "field_5cee38b45218b",
                            "label": "Baggrundsfarve",
                            "name": "bg",
                            "type": "select",
                            "instructions": "Vælg sektionens baggrundsfarve.",
                            "required": 0,
                            "conditional_logic": 0,
                            "wrapper": {
                                "width": "50",
                                "class": "",
                                "id": ""
                            },
                            "choices": {
                                "none": "Ingen",
                                "blue": "Blå",
                                "red": "Rød",
                                "gray": "Grå"
                            },
                            "default_value": [
                                "none"
                            ],
                            "allow_null": 0,
                            "multiple": 0,
                            "ui": 0,
                            "ajax": 0,
                            "return_format": "value",
                            "placeholder": ""
                        },
                        {
                            "key": "field_5cee38b45218c",
                            "label": "Margin",
                            "name": "margin",
                            "type": "select",
                            "instructions": "Vælg om sektionen skal have margin i top, bund, begge eller ingen.",
                            "required": 0,
                            "conditional_logic": 0,
                            "wrapper": {
                                "width": "50",
                                "class": "",
                                "id": ""
                            },
                            "choices": {
                                "none": "Ingen",
                                "top": "Top",
                                "bottom": "Bund",
                                "both": "Begge"
                            },
                            "default_value": [
                                "none"
                            ],
                            "allow_null": 0,
                            "multiple": 0,
                            "ui": 0,
                            "ajax": 0,
                            "return_format": "value",
                            "placeholder": ""
                        },
                        {
                            "key": "field_5cee38b45218d",
                            "label": "Seneste spørgsmål",
                            "name": "",
                            "type": "tab",
                            "instructions": "",
                            "required": 0,
                            "conditional_logic": 0,
                            "wrapper": {
                                "width": "",
                                "class": "",
                                "id": ""
                            },
                            "placement": "top",
                            "endpoint": 0
                        },
                        {
                            "key": "field_5cee38b45218e",
                            "label": "Seneste spørgsmål",
                            "name": "",
                            "type": "message",
                            "instructions": "",
                            "required": 0,
                            "conditional_logic": 0,
                            "wrapper": {
                                "width": "",
                                "class": "",
                                "id": ""
                            },
                            "message": "Denne sektion henter de seneste spørgsmål fra brevkassen",
                            "new_lines": "wpautop",
                            "esc_html": 0
                        },
                        {
                            "key": "field_5cee38fa52191",
                            "label": "Indledende tekst",
                            "name": "text",
                            "type": "wysiwyg",
                            "instructions": "",
                            "required": 0,
                            "conditional_logic": 0,
                            "wrapper": {
                                "width": "",
                                "class": "",
                                "id": ""
                            },
                            "default_value": "",
                            "tabs": "all",
                            "toolbar": "full",
                            "media_upload": 0,
                            "delay": 0
                        }
                    ],
                    "min": "",
                    "max": ""
                }
            },
            "button_label": "Tilføj Layout",
            "min": "",
            "max": ""
        }
    ],
    "location": [
        [
            {
                "param": "page_template",
                "operator": "==",
                "value": "page-layouts.php"
            }
        ]
    ],
    "menu_order": 1,
    "position": "normal",
    "style": "seamless",
    "label_placement": "top",
    "instruction_placement": "label",
    "hide_on_screen": [
        "the_content",
        "excerpt",
        "discussion",
        "comments",
        "revisions",
        "slug",
        "author",
        "format",
        "featured_image",
        "categories",
        "tags",
        "send-trackbacks"
    ],
    "active": 1,
    "description": "",
    "modified": 1571304514
}